Tidy Tuesday
…
## Joining, by = "paper"

## Joining, by = "author"

## Joining, by = "paper"

## Joining, by = "program"

joined_df

## # A tibble: 130,081 x 12
##    paper catalogue_group  year month title author name  user_nber user_repec
##    <chr> <chr>           <dbl> <dbl> <chr> <chr>  <chr> <chr>     <chr>     
##  1 w0001 General          1973     6 Educ~ w0001~ Fini~ finis_we~ <NA>      
##  2 w0002 General          1973     6 Hosp~ w0002~ Barr~ barry_ch~ pch425    
##  3 w0003 General          1973     6 Erro~ w0003~ Swar~ swarnjit~ <NA>      
##  4 w0004 General          1973     7 Huma~ w0004~ Lee ~ <NA>      pli669    
##  5 w0005 General          1973     7 A Li~ w0005~ Jame~ james_sm~ psm28     
##  6 w0006 General          1973     7 A Re~ w0006~ Vict~ victor_z~ <NA>      
##  7 w0007 General          1973     8 The ~ w0007~ Lewi~ <NA>      <NA>      
##  8 w0008 General          1973     9 Mult~ w0008~ Merl~ <NA>      <NA>      
##  9 w0008 General          1973     9 Mult~ w0008~ Robe~ robert_l~ pli259    
## 10 w0009 General          1973     9 From~ w0004~ Lee ~ <NA>      pli669    
## # ... with 130,071 more rows, and 3 more variables: program <chr>,
## #   program_desc <chr>, program_category <chr>
…
