Visualization
…
Next, I wrangle the data by adding each death cause by year.

## # A tibble: 1,151 x 3
## # Groups:   year [202]
##     year Cause       n
##    <int> <chr>   <int>
##  1  1791 GUNFIRE     2
##  2  1792 GUNFIRE     1
##  3  1794 GUNFIRE     1
##  4  1797 GUNFIRE     1
##  5  1804 GUNFIRE     1
##  6  1806 OTHER       1
##  7  1807 GUNFIRE     1
##  8  1808 GUNFIRE     2
##  9  1808 OTHER       2
## 10  1810 GUNFIRE     1
## # ... with 1,141 more rows
…
